mc15_13TeV:mc15_13TeV.410073.MadGraphPythia8EvtGen_A14NNPDF23LO_ttZnnqq_Np0.merge.DAOD_SUSY5.e4111_s2608_s2183_r6793_r6264_p2375/
mc15_13TeV:mc15_13TeV.410074.MadGraphPythia8EvtGen_A14NNPDF23LO_ttZnnqq_Np1.merge.DAOD_SUSY5.e4143_s2608_s2183_r6793_r6264_p2375/
mc15_13TeV:mc15_13TeV.410075.MadGraphPythia8EvtGen_A14NNPDF23LO_ttZnnqq_Np2.merge.DAOD_SUSY5.e4111_s2608_s2183_r6793_r6264_p2375/
